{
    "data": [
        {
            "id": 52,
            "title": "안녕하세요? - 예시입니다",
            "content": "하하하하",
            "deadline": "2021-12-12",
            "isDone": 52,
            "updated_at": "4 hours ago 전에 수정되었습니다."
        },
        {
            "id": 51,
            "title": "안녕하세요?",
            "content": "하하하",
            "deadline": "마감기한이 정해져 있지 않습니다.",
            "isDone": 51,
            "updated_at": "4 hours ago 전에 수정되었습니다."
        },
        {
            "id": 2,
            "title": "Reprehenderit.",
            "content": "Quisquam ipsa dignissimos qui ea ut quis maiores. Sit velit deleniti at est.",
            "deadline": "마감기한이 정해져 있지 않습니다.",
            "isDone": 2,
            "updated_at": "4 hours ago 전에 수정되었습니다."
        },
        {
            "id": 3,
            "title": "Eum.",
            "content": "Cum blanditiis voluptas est molestiae ex. Maiores est omnis labore nam atque.",
            "deadline": "마감기한이 정해져 있지 않습니다.",
            "isDone": 3,
            "updated_at": "4 hours ago 전에 수정되었습니다."
        },
        {
            "id": 4,
            "title": "Iste quae.",
            "content": "Aut voluptatibus voluptates cum nulla. Eos id et reiciendis numquam placeat.",
            "deadline": "마감기한이 정해져 있지 않습니다.",
            "isDone": 4,
            "updated_at": "4 hours ago 전에 수정되었습니다."
        }
    ],
    "meta": {
        "current_page": 1,
        "from": 1,
        "last_page": 11,
        "path": "http://127.0.0.1:8000/api/v1/todos",
        "per_page": 5,
        "to": 5,
        "total": 51
    }
}
