name: 'í¬ìŠ¤íŠ¸ ê´€ë¦¬'
description: |-

  APIs for managing posts
  í¬ìŠ¤íŠ¸ë¥¼ ê´€ë¦¬í•©ë‹ˆë‹¤.
endpoints:
  -
    httpMethods:
      - GET
    uri: api/v1/todos
    metadata:
      title: 'Get a list of posts'
      description: |-
        í¬ìŠ¤íŠ¸ ë¦¬ìŠ¤íŠ¸ ê°€ì ¸ì˜¤ê¸°
        <aside class="notice">We mean it; you really should.ğŸ˜•</aside>
      authenticated: false
    headers:
      Content-Type: application/json
      Accept: application/json
      Api-Version: v1
    urlParameters: []
    queryParameters:
      page:
        name: page
        description: í˜ì´ì§€
        required: false
        example: 1
        type: integer
    bodyParameters: []
    responses:
      -
        status: 200
        content: |
          {
              "data": [
                  {
                      "id": 52,
                      "title": "ì•ˆë…•í•˜ì„¸ìš”? - ì˜ˆì‹œì…ë‹ˆë‹¤",
                      "content": "í•˜í•˜í•˜í•˜",
                      "deadline": "2021-12-12",
                      "isDone": 52,
                      "updated_at": "4 hours ago ì „ì— ìˆ˜ì •ë˜ì—ˆìŠµë‹ˆë‹¤."
                  },
                  {
                      "id": 51,
                      "title": "ì•ˆë…•í•˜ì„¸ìš”?",
                      "content": "í•˜í•˜í•˜",
                      "deadline": "ë§ˆê°ê¸°í•œì´ ì •í•´ì ¸ ìˆì§€ ì•ŠìŠµë‹ˆë‹¤.",
                      "isDone": 51,
                      "updated_at": "4 hours ago ì „ì— ìˆ˜ì •ë˜ì—ˆìŠµë‹ˆë‹¤."
                  },
                  {
                      "id": 2,
                      "title": "Reprehenderit.",
                      "content": "Quisquam ipsa dignissimos qui ea ut quis maiores. Sit velit deleniti at est.",
                      "deadline": "ë§ˆê°ê¸°í•œì´ ì •í•´ì ¸ ìˆì§€ ì•ŠìŠµë‹ˆë‹¤.",
                      "isDone": 2,
                      "updated_at": "4 hours ago ì „ì— ìˆ˜ì •ë˜ì—ˆìŠµë‹ˆë‹¤."
                  },
                  {
                      "id": 3,
                      "title": "Eum.",
                      "content": "Cum blanditiis voluptas est molestiae ex. Maiores est omnis labore nam atque.",
                      "deadline": "ë§ˆê°ê¸°í•œì´ ì •í•´ì ¸ ìˆì§€ ì•ŠìŠµë‹ˆë‹¤.",
                      "isDone": 3,
                      "updated_at": "4 hours ago ì „ì— ìˆ˜ì •ë˜ì—ˆìŠµë‹ˆë‹¤."
                  },
                  {
                      "id": 4,
                      "title": "Iste quae.",
                      "content": "Aut voluptatibus voluptates cum nulla. Eos id et reiciendis numquam placeat.",
                      "deadline": "ë§ˆê°ê¸°í•œì´ ì •í•´ì ¸ ìˆì§€ ì•ŠìŠµë‹ˆë‹¤.",
                      "isDone": 4,
                      "updated_at": "4 hours ago ì „ì— ìˆ˜ì •ë˜ì—ˆìŠµë‹ˆë‹¤."
                  }
              ],
              "meta": {
                  "current_page": 1,
                  "from": 1,
                  "last_page": 11,
                  "path": "http://127.0.0.1:8000/api/v1/todos",
                  "per_page": 5,
                  "to": 5,
                  "total": 51
              }
          }
        headers: []
        description: '200, ì„±ê³µ'
    responseFields: []
  -
    httpMethods:
      - POST
    uri: api/v1/todos
    metadata:
      title: 'add a new todo'
      description: |-
        í¬ìŠ¤íŠ¸ ì¶”ê°€í•˜ê¸°
        <aside class="notice">We mean it; you really should.ğŸ˜•</aside>
      authenticated: false
    headers:
      Content-Type: application/json
      Accept: application/json
      Api-Version: v1
    urlParameters: []
    queryParameters: []
    bodyParameters:
      title:
        name: title
        description: 'í• ì¼ ì œëª©'
        required: true
        example: 'ì±… ì½ê¸°'
        type: string
      content:
        name: content
        description: 'í• ì¼ ë‚´ìš©.'
        required: false
        example: 'ìê¸°ê°œë°œì— ëŒ€í•œ ì±…ì„ ì½ì'
        type: longText
      deadline:
        name: deadline
        description: ë§ˆê°ê¸°í•œ
        required: false
        example: null
        type: date
      isDone:
        name: isDone
        description: ì™„ë£Œì—¬ë¶€
        required: true
        example: true
        type: boolean
    responses:
      -
        status: 201
        content: |
          {
              "data": {
                  "id": 54,
                  "title": "ìƒˆ í• ì¼",
                  "content": "ì €ë… ì¥ë³´ê¸°",
                  "deadline": "2021-12-01",
                  "isDone": "ë¯¸ì™„ë£Œ",
                  "create_at": "1 second ago ì „ì— ì‘ì„±ë˜ì—ˆë‹¤."
              }
          }
        headers: []
        description: '201, success'
      -
        status: 201
        content: |
          {
              "data": {
                  "id": 50,
                  "title": "ë¹¨ë˜í•˜ê¸°. - ì˜ˆì‹œ",
                  "content": "ë¹¨ë˜ëŒë¦´ë•Œ ìˆ˜ê±´ ë¨¼ì € ëŒë¦¬ê¸° - ì˜ˆì‹œ",
                  "deadline": "ë§ˆê°ê¸°í•œì´ ì •í•´ì ¸ìˆì§€ ì•ŠìŠµë‹ˆë‹¤.",
                  "isDone": "ì™„ë£Œ",
                  "create_at": "15 hours ago ì „ì— ì‘ì„±ë˜ì—ˆë‹¤."
              }
          }
        headers: []
        description: '201, ë§ˆê°ê¸°í•œì´ ì •í•´ì ¸ ìˆì§€ ì•Šì„ ë•Œ'
      -
        status: 422
        content: |
          {
              "message": "The given data was invalid.",
              "errors": {
                  "deadline": [
                      "The deadline is not a valid date."
                  ]
              }
          }
        headers: []
        description: '422, ë°ì´í„°ê°€ ìœ íš¨í•˜ì§€ ì•Šì„ ë•Œ'
    responseFields: []
  -
    httpMethods:
      - GET
    uri: 'api/v1/todos/{id}'
    metadata:
      title: 'get a todo'
      description: |-
        íŠ¹ì • í• ì¼ ê°€ì ¸ì˜¤ê¸°

        <aside class="notice">urlParam ì— ëŒ€í•œ ì„¤ëª…</aside>
      authenticated: false
    headers:
      Content-Type: application/json
      Accept: application/json
      Api-Version: v1
    urlParameters:
      id:
        name: id
        description: 'í• ì¼ ì•„ì´ë””'
        required: true
        example: 10
        type: integer
    queryParameters: []
    bodyParameters: []
    responses:
      -
        status: 200
        content: |
          {
              "data": {
                  "id": 50,
                  "title": "ë¹¨ë˜í•˜ê¸°. - ì˜ˆì‹œ",
                  "content": "ë¹¨ë˜ëŒë¦´ë•Œ ìˆ˜ê±´ ë¨¼ì € ëŒë¦¬ê¸° - ì˜ˆì‹œ",
                  "deadline": "2020-12-08",
                  "isDone": "ì™„ë£Œ",
                  "create_at": "15 hours ago ì „ì— ì‘ì„±ë˜ì—ˆë‹¤."
              }
          }
        headers: []
        description: '200, success'
      -
        status: 200
        content: |
          {
              "data": {
                  "id": 50,
                  "title": "ë¹¨ë˜í•˜ê¸°. - ì˜ˆì‹œ",
                  "content": "ë¹¨ë˜ëŒë¦´ë•Œ ìˆ˜ê±´ ë¨¼ì € ëŒë¦¬ê¸° - ì˜ˆì‹œ",
                  "deadline": "ë§ˆê°ê¸°í•œì´ ì •í•´ì ¸ìˆì§€ ì•ŠìŠµë‹ˆë‹¤.",
                  "isDone": "ì™„ë£Œ",
                  "create_at": "15 hours ago ì „ì— ì‘ì„±ë˜ì—ˆë‹¤."
              }
          }
        headers: []
        description: '200, ë§ˆê°ê¸°í•œì´ ì •í•´ì ¸ ìˆì§€ ì•Šì„ë•Œ'
      -
        status: 404
        content: |
          {
              "message": "í•´ë‹¹ í• ì¼ì„ ì°¾ì„ ìˆ˜ê°€ ì—†ìŠµë‹ˆë‹¤."
          }
        headers: []
        description: '404, todo not found'
    responseFields: []
  -
    httpMethods:
      - PUT
      - PATCH
    uri: 'api/v1/todos/{id}'
    metadata:
      title: 'Update a todo'
      description: |-
        íŠ¹ì • í• ì¼ ìˆ˜ì •í•˜ê¸°
        <aside class="notice">We mean it; you really should.ğŸ˜•</aside>
      authenticated: false
    headers:
      Content-Type: application/json
      Accept: application/json
      Api-Version: v1
    urlParameters:
      id:
        name: id
        description: 'í• ì¼ ì•„ì´ë””'
        required: true
        example: 10
        type: integer
    queryParameters: []
    bodyParameters:
      title:
        name: title
        description: 'í• ì¼ ì œëª©'
        required: true
        example: 'ì±… ì½ê¸°'
        type: string
      content:
        name: content
        description: 'í• ì¼ ë‚´ìš©.'
        required: false
        example: 'ìê¸°ê°œë°œì— ëŒ€í•œ ì±…ì„ ì½ì'
        type: longText
      deadline:
        name: deadline
        description: ë§ˆê°ê¸°í•œ
        required: false
        example: null
        type: date
      isDone:
        name: isDone
        description: ì™„ë£Œì—¬ë¶€
        required: true
        example: true
        type: boolean
    responses:
      -
        status: 200
        content: |
          {
              "data": {
                  "id": 54,
                  "title": "ìƒˆ í• ì¼",
                  "content": "ì €ë… ì¥ë³´ê¸°",
                  "deadline": "2021-12-01",
                  "isDone": "ë¯¸ì™„ë£Œ",
                  "create_at": "1 second ago ì „ì— ì‘ì„±ë˜ì—ˆë‹¤."
              }
          }
        headers: []
        description: '200, success'
      -
        status: 404
        content: |
          {
              "message": "í•´ë‹¹ í• ì¼ì„ ì°¾ì„ ìˆ˜ê°€ ì—†ìŠµë‹ˆë‹¤."
          }
        headers: []
        description: '404, todo not found'
      -
        status: 422
        content: |
          {
              "message": "The given data was invalid.",
              "errors": {
                  "deadline": [
                      "The deadline is not a valid date."
                  ]
              }
          }
        headers: []
        description: '422, ë°ì´í„°ê°€ ìœ íš¨í•˜ì§€ ì•Šì„ ë•Œ'
    responseFields: []
  -
    httpMethods:
      - DELETE
    uri: 'api/v1/todos/{id}'
    metadata:
      title: 'Remove a todo'
      description: |-
        íŠ¹ì • í• ì¼ ì‚­ì œí•˜ê¸°
        <aside class="notice">We mean it; you really should.ğŸ˜•</aside>
      authenticated: false
    headers:
      Content-Type: application/json
      Accept: application/json
      Api-Version: v1
    urlParameters:
      id:
        name: id
        description: 'í• ì¼ ì•„ì´ë””'
        required: true
        example: 10
        type: integer
    queryParameters: []
    bodyParameters: []
    responses:
      -
        status: 204
        content: '{}'
        headers: []
        description: '204, success'
      -
        status: 404
        content: |
          {
              "message": "í•´ë‹¹ í• ì¼ì„ ì°¾ì„ ìˆ˜ê°€ ì—†ìŠµë‹ˆë‹¤."
          }
        headers: []
        description: '404, todo not found'
    responseFields: []
